Project
…
Exploratory Data Analysis (EDA)

###graphical and non-graphical representations of relationships between the response variable and predictor variables

df_eda <- df_orig

rownames(df_eda) <- df_eda$id

## Warning: Setting row names on a tibble is deprecated.

df_eda <- dplyr::select(df_eda, -id)

print(df_eda)

## # A tibble: 5,110 × 11
##    gender   age hypertension heart_disease ever_married work_type Residence_type
##    <chr>  <dbl>        <dbl>         <dbl> <chr>        <chr>     <chr>         
##  1 Male      67            0             1 Yes          Private   Urban         
##  2 Female    61            0             0 Yes          Self-emp… Rural         
##  3 Male      80            0             1 Yes          Private   Rural         
##  4 Female    49            0             0 Yes          Private   Urban         
##  5 Female    79            1             0 Yes          Self-emp… Rural         
##  6 Male      81            0             0 Yes          Private   Urban         
##  7 Male      74            1             1 Yes          Private   Rural         
##  8 Female    69            0             0 No           Private   Urban         
##  9 Female    59            0             0 Yes          Private   Rural         
## 10 Female    78            0             0 Yes          Private   Urban         
## # ℹ 5,100 more rows
## # ℹ 4 more variables: avg_glucose_level <dbl>, bmi <chr>, smoking_status <chr>,
## #   stroke <dbl>
…
